<svg width="1920" height="1080" viewBox="0 0 1920 1080" fill="none" xmlns="http://www.w3.org/2000/svg">
<g clip-path="url(#clip0_1_52)">
<rect width="1920" height="1080" fill="#469A8B"/>
<g filter="url(#filter0_f_1_52)">
<ellipse cx="754.5" cy="758.5" rx="754.5" ry="502.5" fill="#72BA6A"/>
<ellipse cx="1134" cy="233" rx="874" ry="444" fill="#73CAF3" fill-opacity="0.94"/>
<ellipse cx="550.5" cy="747.5" rx="129.5" ry="91.5" fill="#3EFF28"/>
<ellipse cx="733.5" cy="233.5" rx="201.5" ry="188.5" fill="#BFE9FF"/>
</g>
</g>
<defs>
<filter id="filter0_f_1_52" x="-427" y="-638" width="2862" height="2326" filterUnits="userSpaceOnUse" color-interpolation-filters="sRGB">
<feFlood flood-opacity="0" result="BackgroundImageFix"/>
<feBlend mode="normal" in="SourceGraphic" in2="BackgroundImageFix" result="shape"/>
<feGaussianBlur stdDeviation="213.5" result="effect1_foregroundBlur_1_52"/>
</filter>
<clipPath id="clip0_1_52">
<rect width="1920" height="1080" fill="white"/>
</clipPath>
</defs>
</svg>
