<svg width="1879" height="1052" viewBox="0 0 1879 1052" fill="none" xmlns="http://www.w3.org/2000/svg">
<path d="M1284.4 747.164H1290.61V775.827C1290.61 778.877 1289.94 781.579 1288.59 783.934C1287.24 786.275 1285.34 788.119 1282.9 789.466C1280.46 790.8 1277.59 791.467 1274.31 791.467C1271.04 791.467 1268.18 790.8 1265.73 789.466C1263.29 788.119 1261.39 786.275 1260.05 783.934C1258.7 781.579 1258.02 778.877 1258.02 775.827V747.164H1264.21V775.295C1264.21 777.266 1264.62 779.018 1265.43 780.551C1266.26 782.083 1267.43 783.288 1268.94 784.168C1270.45 785.033 1272.24 785.466 1274.31 785.466C1276.39 785.466 1278.19 785.033 1279.69 784.168C1281.22 783.288 1282.38 782.083 1283.18 780.551C1283.99 779.018 1284.4 777.266 1284.4 775.295V747.164Z" fill="white"/>
<path d="M1305.12 771.337V790.743H1299.13V758.059H1304.88V763.378H1305.26C1305.96 761.648 1307.07 760.257 1308.58 759.208C1310.1 758.158 1312.02 757.633 1314.33 757.633C1316.43 757.633 1318.26 758.101 1319.84 759.037C1321.41 759.959 1322.63 761.336 1323.5 763.166C1324.37 764.996 1324.8 767.258 1324.8 769.954V790.743H1318.82V770.72C1318.82 768.35 1318.23 766.499 1317.07 765.166C1315.91 763.818 1314.32 763.144 1312.29 763.144C1310.9 763.144 1309.66 763.463 1308.58 764.102C1307.51 764.74 1306.66 765.676 1306.04 766.911C1305.42 768.131 1305.12 769.606 1305.12 771.337Z" fill="white"/>
<path d="M1332.84 790.743V758.059H1338.82V790.743H1332.84ZM1335.86 753.015C1334.82 753.015 1333.92 752.647 1333.18 751.909C1332.44 751.157 1332.07 750.263 1332.07 749.228C1332.07 748.178 1332.44 747.284 1333.18 746.547C1333.92 745.795 1334.82 745.419 1335.86 745.419C1336.9 745.419 1337.79 745.795 1338.52 746.547C1339.27 747.284 1339.65 748.178 1339.65 749.228C1339.65 750.263 1339.27 751.157 1338.52 751.909C1337.79 752.647 1336.9 753.015 1335.86 753.015Z" fill="white"/>
<path d="M1373.2 758.059L1362.04 790.743H1355.63L1344.46 758.059H1350.89L1358.68 783.21H1359L1366.77 758.059H1373.2Z" fill="white"/>
<path d="M1391.04 791.403C1388.01 791.403 1385.4 790.715 1383.21 789.339C1381.03 787.949 1379.35 785.998 1378.16 783.487C1376.99 780.962 1376.4 778.004 1376.4 774.614C1376.4 771.266 1376.99 768.315 1378.16 765.762C1379.35 763.208 1381.01 761.215 1383.13 759.782C1385.26 758.349 1387.76 757.633 1390.62 757.633C1392.36 757.633 1394.04 757.938 1395.67 758.548C1397.3 759.158 1398.76 760.116 1400.05 761.421C1401.35 762.726 1402.37 764.421 1403.12 766.506C1403.87 768.577 1404.24 771.096 1404.24 774.06V776.316H1379.78V771.549H1398.37C1398.37 769.876 1398.05 768.393 1397.41 767.102C1396.77 765.797 1395.87 764.769 1394.71 764.017C1393.56 763.265 1392.21 762.889 1390.66 762.889C1388.98 762.889 1387.51 763.329 1386.25 764.208C1385.01 765.074 1384.05 766.208 1383.37 767.613C1382.7 769.003 1382.37 770.514 1382.37 772.145V775.869C1382.37 778.054 1382.73 779.912 1383.45 781.444C1384.18 782.976 1385.2 784.147 1386.51 784.955C1387.82 785.75 1389.35 786.147 1391.1 786.147C1392.24 786.147 1393.27 785.977 1394.2 785.636C1395.14 785.282 1395.95 784.757 1396.63 784.062C1397.31 783.366 1397.83 782.508 1398.19 781.487L1403.86 782.572C1403.4 784.345 1402.59 785.899 1401.41 787.232C1400.25 788.551 1398.79 789.58 1397.03 790.318C1395.28 791.041 1393.28 791.403 1391.04 791.403Z" fill="white"/>
<path d="M1410.88 790.743V758.059H1416.67V763.251H1416.99C1417.55 761.492 1418.54 760.108 1419.96 759.101C1421.39 758.08 1423 757.569 1424.8 757.569C1425.18 757.569 1425.62 757.583 1426.13 757.612C1426.65 757.64 1427.05 757.675 1427.35 757.718V763.804C1427.11 763.733 1426.68 763.655 1426.07 763.57C1425.45 763.47 1424.84 763.421 1424.22 763.421C1422.81 763.421 1421.55 763.74 1420.44 764.378C1419.34 765.003 1418.47 765.875 1417.83 766.996C1417.19 768.102 1416.87 769.365 1416.87 770.783V790.743H1410.88Z" fill="white"/>
<path d="M1455.58 766.038L1450.16 767.06C1449.93 766.322 1449.57 765.62 1449.07 764.953C1448.59 764.286 1447.94 763.74 1447.11 763.314C1446.28 762.889 1445.25 762.676 1444.01 762.676C1442.31 762.676 1440.9 763.08 1439.76 763.889C1438.63 764.683 1438.06 765.712 1438.06 766.974C1438.06 768.067 1438.44 768.946 1439.2 769.613C1439.96 770.28 1441.19 770.826 1442.88 771.252L1447.77 772.443C1450.6 773.138 1452.71 774.209 1454.1 775.656C1455.49 777.103 1456.18 778.983 1456.18 781.295C1456.18 783.253 1455.65 784.998 1454.58 786.53C1453.53 788.048 1452.05 789.24 1450.16 790.105C1448.27 790.97 1446.09 791.403 1443.61 791.403C1440.16 791.403 1437.35 790.623 1435.17 789.062C1433 787.488 1431.66 785.253 1431.17 782.359L1436.96 781.423C1437.32 783.026 1438.06 784.239 1439.18 785.062C1440.3 785.87 1441.76 786.275 1443.57 786.275C1445.53 786.275 1447.1 785.842 1448.27 784.977C1449.45 784.097 1450.04 783.026 1450.04 781.763C1450.04 780.742 1449.67 779.884 1448.95 779.189C1448.25 778.494 1447.16 777.969 1445.69 777.614L1440.48 776.401C1437.61 775.706 1435.49 774.599 1434.11 773.082C1432.75 771.564 1432.07 769.641 1432.07 767.315C1432.07 765.386 1432.58 763.697 1433.59 762.251C1434.61 760.804 1436.01 759.676 1437.8 758.867C1439.59 758.044 1441.64 757.633 1443.95 757.633C1447.27 757.633 1449.89 758.399 1451.8 759.931C1453.71 761.449 1454.97 763.485 1455.58 766.038Z" fill="white"/>
<path d="M1462.77 790.743V758.059H1468.76V790.743H1462.77ZM1465.79 753.015C1464.75 753.015 1463.86 752.647 1463.11 751.909C1462.37 751.157 1462.01 750.263 1462.01 749.228C1462.01 748.178 1462.37 747.284 1463.11 746.547C1463.86 745.795 1464.75 745.419 1465.79 745.419C1466.83 745.419 1467.72 745.795 1468.46 746.547C1469.2 747.284 1469.58 748.178 1469.58 749.228C1469.58 750.263 1469.2 751.157 1468.46 751.909C1467.72 752.647 1466.83 753.015 1465.79 753.015Z" fill="white"/>
<path d="M1491.17 758.059V763.166H1474.37V758.059H1491.17ZM1478.88 750.228H1484.87V781.146C1484.87 782.381 1485.04 783.31 1485.39 783.934C1485.73 784.544 1486.18 784.962 1486.73 785.189C1487.29 785.402 1487.9 785.509 1488.55 785.509C1489.03 785.509 1489.45 785.473 1489.81 785.402C1490.17 785.331 1490.45 785.274 1490.65 785.232L1491.74 790.488C1491.39 790.63 1490.89 790.772 1490.25 790.913C1489.61 791.07 1488.81 791.155 1487.85 791.169C1486.27 791.197 1484.81 790.899 1483.44 790.275C1482.08 789.651 1480.98 788.686 1480.14 787.381C1479.3 786.076 1478.88 784.438 1478.88 782.466V750.228Z" fill="white"/>
<path d="M1501.58 803C1500.69 803 1499.88 802.922 1499.14 802.766C1498.41 802.624 1497.86 802.468 1497.5 802.298L1498.94 797.084C1500.04 797.396 1501.01 797.531 1501.87 797.489C1502.72 797.446 1503.47 797.106 1504.13 796.467C1504.8 795.829 1505.38 794.786 1505.89 793.339L1506.63 791.169L1495.38 758.059H1501.78L1509.58 783.423H1509.9L1517.69 758.059H1524.12L1511.44 795.105C1510.85 796.808 1510.1 798.248 1509.2 799.425C1508.29 800.617 1507.21 801.51 1505.95 802.106C1504.7 802.702 1503.24 803 1501.58 803Z" fill="white"/>
<path d="M1256 675.924V670.264H1287.75V675.924H1274.95V713.843H1268.78V675.924H1256Z" fill="white"/>
<path d="M1303.08 714.503C1300.05 714.503 1297.44 713.815 1295.25 712.439C1293.07 711.049 1291.39 709.098 1290.2 706.587C1289.02 704.062 1288.44 701.104 1288.44 697.714C1288.44 694.366 1289.02 691.415 1290.2 688.862C1291.39 686.308 1293.04 684.315 1295.17 682.882C1297.3 681.449 1299.8 680.733 1302.66 680.733C1304.39 680.733 1306.08 681.038 1307.7 681.648C1309.33 682.258 1310.8 683.216 1312.09 684.521C1313.39 685.826 1314.41 687.521 1315.16 689.606C1315.9 691.678 1316.28 694.196 1316.28 697.161V699.416H1291.82V694.65H1310.41C1310.41 692.976 1310.09 691.493 1309.45 690.202C1308.81 688.897 1307.9 687.869 1306.74 687.117C1305.59 686.365 1304.25 685.989 1302.7 685.989C1301.01 685.989 1299.55 686.429 1298.29 687.308C1297.05 688.174 1296.09 689.309 1295.41 690.713C1294.74 692.103 1294.41 693.614 1294.41 695.245V698.969C1294.41 701.154 1294.77 703.012 1295.49 704.544C1296.22 706.076 1297.24 707.247 1298.55 708.055C1299.86 708.85 1301.39 709.247 1303.14 709.247C1304.27 709.247 1305.31 709.077 1306.24 708.736C1307.18 708.382 1307.99 707.857 1308.67 707.162C1309.35 706.467 1309.87 705.608 1310.23 704.587L1315.9 705.672C1315.44 707.445 1314.63 708.999 1313.45 710.332C1312.29 711.652 1310.83 712.68 1309.07 713.418C1307.32 714.141 1305.32 714.503 1303.08 714.503Z" fill="white"/>
<path d="M1335.88 714.503C1332.9 714.503 1330.34 713.787 1328.19 712.354C1326.05 710.907 1324.41 708.914 1323.26 706.374C1322.11 703.835 1321.54 700.927 1321.54 697.65C1321.54 694.33 1322.13 691.401 1323.3 688.862C1324.48 686.308 1326.13 684.315 1328.27 682.882C1330.41 681.449 1332.92 680.733 1335.82 680.733C1338.16 680.733 1340.24 681.194 1342.07 682.116C1343.9 683.024 1345.37 684.301 1346.5 685.946C1347.63 687.592 1348.3 689.514 1348.52 691.713H1342.69C1342.37 690.181 1341.64 688.862 1340.49 687.755C1339.35 686.649 1337.83 686.095 1335.92 686.095C1334.25 686.095 1332.79 686.564 1331.53 687.5C1330.29 688.422 1329.32 689.741 1328.63 691.458C1327.94 693.16 1327.59 695.174 1327.59 697.501C1327.59 699.884 1327.93 701.941 1328.61 703.672C1329.29 705.403 1330.25 706.743 1331.49 707.694C1332.75 708.644 1334.22 709.119 1335.92 709.119C1337.06 709.119 1338.08 708.9 1339 708.46C1339.94 708.006 1340.72 707.36 1341.35 706.523C1341.99 705.686 1342.44 704.679 1342.69 703.502H1348.52C1348.3 705.615 1347.66 707.502 1346.58 709.162C1345.49 710.822 1344.05 712.127 1342.23 713.077C1340.43 714.028 1338.31 714.503 1335.88 714.503Z" fill="white"/>
<path d="M1360.91 694.437V713.843H1354.92V670.264H1360.83V686.478H1361.21C1361.93 684.719 1363.03 683.322 1364.52 682.286C1366 681.251 1367.93 680.733 1370.33 680.733C1372.43 680.733 1374.28 681.194 1375.85 682.116C1377.44 683.038 1378.67 684.414 1379.54 686.244C1380.42 688.06 1380.86 690.33 1380.86 693.054V713.843H1374.87V693.82C1374.87 691.422 1374.29 689.564 1373.13 688.245C1371.97 686.911 1370.35 686.244 1368.28 686.244C1366.87 686.244 1365.6 686.564 1364.48 687.202C1363.37 687.84 1362.49 688.777 1361.85 690.011C1361.23 691.231 1360.91 692.706 1360.91 694.437Z" fill="white"/>
<path d="M1394.84 694.437V713.843H1388.85V681.159H1394.6V686.478H1394.98C1395.69 684.748 1396.8 683.357 1398.31 682.308C1399.83 681.258 1401.74 680.733 1404.05 680.733C1406.15 680.733 1407.99 681.201 1409.56 682.137C1411.14 683.06 1412.36 684.436 1413.23 686.266C1414.09 688.096 1414.53 690.358 1414.53 693.054V713.843H1408.54V693.82C1408.54 691.451 1407.96 689.599 1406.8 688.266C1405.64 686.918 1404.04 686.244 1402.01 686.244C1400.62 686.244 1399.39 686.564 1398.31 687.202C1397.24 687.84 1396.39 688.777 1395.76 690.011C1395.15 691.231 1394.84 692.706 1394.84 694.437Z" fill="white"/>
<path d="M1435.52 714.503C1432.64 714.503 1430.12 713.801 1427.97 712.396C1425.82 710.992 1424.15 709.027 1422.96 706.502C1421.77 703.977 1421.18 701.026 1421.18 697.65C1421.18 694.259 1421.77 691.295 1422.96 688.755C1424.15 686.216 1425.82 684.244 1427.97 682.84C1430.12 681.435 1432.64 680.733 1435.52 680.733C1438.4 680.733 1440.92 681.435 1443.07 682.84C1445.22 684.244 1446.89 686.216 1448.08 688.755C1449.27 691.295 1449.86 694.259 1449.86 697.65C1449.86 701.026 1449.27 703.977 1448.08 706.502C1446.89 709.027 1445.22 710.992 1443.07 712.396C1440.92 713.801 1438.4 714.503 1435.52 714.503ZM1435.54 709.162C1437.41 709.162 1438.96 708.637 1440.19 707.587C1441.41 706.538 1442.32 705.14 1442.91 703.395C1443.51 701.65 1443.81 699.728 1443.81 697.629C1443.81 695.543 1443.51 693.628 1442.91 691.883C1442.32 690.124 1441.41 688.713 1440.19 687.649C1438.96 686.585 1437.41 686.053 1435.54 686.053C1433.66 686.053 1432.09 686.585 1430.85 687.649C1429.62 688.713 1428.71 690.124 1428.11 691.883C1427.52 693.628 1427.23 695.543 1427.23 697.629C1427.23 699.728 1427.52 701.65 1428.11 703.395C1428.71 705.14 1429.62 706.538 1430.85 707.587C1432.09 708.637 1433.66 709.162 1435.54 709.162Z" fill="white"/>
<path d="M1462.53 670.264V713.843H1456.54V670.264H1462.53Z" fill="white"/>
<path d="M1483.55 714.503C1480.66 714.503 1478.15 713.801 1476 712.396C1473.85 710.992 1472.18 709.027 1470.99 706.502C1469.8 703.977 1469.21 701.026 1469.21 697.65C1469.21 694.259 1469.8 691.295 1470.99 688.755C1472.18 686.216 1473.85 684.244 1476 682.84C1478.15 681.435 1480.66 680.733 1483.55 680.733C1486.43 680.733 1488.95 681.435 1491.1 682.84C1493.25 684.244 1494.92 686.216 1496.11 688.755C1497.3 691.295 1497.89 694.259 1497.89 697.65C1497.89 701.026 1497.3 703.977 1496.11 706.502C1494.92 709.027 1493.25 710.992 1491.1 712.396C1488.95 713.801 1486.43 714.503 1483.55 714.503ZM1483.57 709.162C1485.44 709.162 1486.99 708.637 1488.22 707.587C1489.44 706.538 1490.35 705.14 1490.94 703.395C1491.54 701.65 1491.84 699.728 1491.84 697.629C1491.84 695.543 1491.54 693.628 1490.94 691.883C1490.35 690.124 1489.44 688.713 1488.22 687.649C1486.99 686.585 1485.44 686.053 1483.57 686.053C1481.69 686.053 1480.12 686.585 1478.88 687.649C1477.65 688.713 1476.74 690.124 1476.14 691.883C1475.55 693.628 1475.26 695.543 1475.26 697.629C1475.26 699.728 1475.55 701.65 1476.14 703.395C1476.74 705.14 1477.65 706.538 1478.88 707.587C1480.12 708.637 1481.69 709.162 1483.57 709.162Z" fill="white"/>
<path d="M1517.47 726.781C1515.03 726.781 1512.93 726.441 1511.16 725.76C1509.41 725.079 1507.99 724.178 1506.88 723.057C1505.77 721.937 1504.94 720.709 1504.39 719.376L1509.54 717.12C1509.9 717.745 1510.38 718.404 1510.98 719.099C1511.6 719.809 1512.43 720.412 1513.47 720.908C1514.52 721.405 1515.88 721.653 1517.53 721.653C1519.8 721.653 1521.68 721.064 1523.16 719.887C1524.64 718.723 1525.38 716.865 1525.38 714.311V707.885H1525C1524.64 708.58 1524.12 709.353 1523.44 710.205C1522.77 711.056 1521.85 711.793 1520.68 712.418C1519.5 713.042 1517.97 713.354 1516.09 713.354C1513.66 713.354 1511.47 712.751 1509.52 711.545C1507.58 710.325 1506.05 708.531 1504.91 706.162C1503.79 703.778 1503.23 700.849 1503.23 697.373C1503.23 693.898 1503.79 690.919 1504.89 688.436C1506.02 685.954 1507.55 684.053 1509.5 682.733C1511.45 681.4 1513.66 680.733 1516.13 680.733C1518.04 680.733 1519.58 681.074 1520.76 681.754C1521.93 682.421 1522.85 683.201 1523.5 684.095C1524.17 684.989 1524.68 685.776 1525.04 686.457H1525.48V681.159H1531.35V714.567C1531.35 717.376 1530.74 719.681 1529.51 721.483C1528.28 723.284 1526.62 724.618 1524.52 725.483C1522.44 726.348 1520.09 726.781 1517.47 726.781ZM1517.41 708.077C1519.13 708.077 1520.59 707.651 1521.78 706.8C1522.98 705.935 1523.89 704.7 1524.5 703.097C1525.13 701.48 1525.44 699.544 1525.44 697.288C1525.44 695.089 1525.14 693.153 1524.52 691.479C1523.91 689.805 1523.01 688.5 1521.82 687.564C1520.63 686.613 1519.16 686.138 1517.41 686.138C1515.61 686.138 1514.11 686.634 1512.91 687.628C1511.7 688.606 1510.8 689.94 1510.18 691.628C1509.58 693.316 1509.28 695.203 1509.28 697.288C1509.28 699.43 1509.59 701.31 1510.2 702.927C1510.82 704.544 1511.72 705.807 1512.93 706.715C1514.14 707.623 1515.64 708.077 1517.41 708.077Z" fill="white"/>
<path d="M1539.38 713.843V681.159H1545.37V713.843H1539.38ZM1542.41 676.116C1541.37 676.116 1540.47 675.747 1539.72 675.009C1538.99 674.257 1538.62 673.363 1538.62 672.328C1538.62 671.278 1538.99 670.384 1539.72 669.647C1540.47 668.895 1541.37 668.519 1542.41 668.519C1543.45 668.519 1544.34 668.895 1545.07 669.647C1545.82 670.384 1546.19 671.278 1546.19 672.328C1546.19 673.363 1545.82 674.257 1545.07 675.009C1544.34 675.747 1543.45 676.116 1542.41 676.116Z" fill="white"/>
<path d="M1566.39 714.503C1563.41 714.503 1560.85 713.787 1558.7 712.354C1556.56 710.907 1554.92 708.914 1553.77 706.374C1552.62 703.835 1552.05 700.927 1552.05 697.65C1552.05 694.33 1552.63 691.401 1553.81 688.862C1554.99 686.308 1556.64 684.315 1558.78 682.882C1560.91 681.449 1563.43 680.733 1566.33 680.733C1568.66 680.733 1570.75 681.194 1572.58 682.116C1574.41 683.024 1575.88 684.301 1577 685.946C1578.14 687.592 1578.81 689.514 1579.03 691.713H1573.2C1572.88 690.181 1572.14 688.862 1570.99 687.755C1569.86 686.649 1568.34 686.095 1566.43 686.095C1564.76 686.095 1563.3 686.564 1562.04 687.5C1560.8 688.422 1559.83 689.741 1559.14 691.458C1558.44 693.16 1558.1 695.174 1558.1 697.501C1558.1 699.884 1558.44 701.941 1559.12 703.672C1559.8 705.403 1560.76 706.743 1562 707.694C1563.26 708.644 1564.73 709.119 1566.43 709.119C1567.56 709.119 1568.59 708.9 1569.51 708.46C1570.45 708.006 1571.23 707.36 1571.86 706.523C1572.5 705.686 1572.94 704.679 1573.2 703.502H1579.03C1578.81 705.615 1578.17 707.502 1577.08 709.162C1576 710.822 1574.55 712.127 1572.74 713.077C1570.93 714.028 1568.82 714.503 1566.39 714.503Z" fill="white"/>
<path d="M1594.38 714.567C1592.43 714.567 1590.67 714.184 1589.1 713.418C1587.52 712.638 1586.27 711.51 1585.35 710.034C1584.44 708.559 1583.99 706.75 1583.99 704.608C1583.99 702.764 1584.32 701.246 1584.99 700.054C1585.66 698.863 1586.56 697.919 1587.69 697.224C1588.83 696.529 1590.1 696.004 1591.5 695.65C1592.9 695.295 1594.33 695.026 1595.79 694.841C1597.63 694.614 1599.12 694.43 1600.27 694.288C1601.42 694.132 1602.25 693.884 1602.78 693.543C1603.3 693.203 1603.56 692.649 1603.56 691.883V691.734C1603.56 689.876 1603.06 688.436 1602.07 687.415C1601.1 686.393 1599.64 685.883 1597.71 685.883C1595.69 685.883 1594.1 686.358 1592.94 687.308C1591.79 688.245 1591 689.287 1590.56 690.436L1584.93 689.074C1585.6 687.088 1586.57 685.485 1587.85 684.265C1589.15 683.031 1590.64 682.137 1592.32 681.584C1594 681.017 1595.77 680.733 1597.63 680.733C1598.86 680.733 1600.16 680.889 1601.53 681.201C1602.92 681.499 1604.22 682.052 1605.42 682.861C1606.63 683.67 1607.63 684.826 1608.4 686.329C1609.18 687.819 1609.57 689.755 1609.57 692.139V713.843H1603.72V709.375H1603.48C1603.09 710.198 1602.51 711.006 1601.73 711.801C1600.96 712.595 1599.96 713.255 1598.75 713.78C1597.53 714.304 1596.08 714.567 1594.38 714.567ZM1595.69 709.46C1597.34 709.46 1598.76 709.112 1599.93 708.417C1601.12 707.722 1602.02 706.814 1602.64 705.693C1603.26 704.559 1603.58 703.346 1603.58 702.055V697.841C1603.36 698.068 1602.95 698.281 1602.34 698.48C1601.73 698.664 1601.05 698.827 1600.27 698.969C1599.5 699.097 1598.74 699.218 1598.01 699.331C1597.27 699.43 1596.66 699.515 1596.17 699.586C1595 699.742 1593.94 700.005 1592.98 700.374C1592.03 700.743 1591.27 701.275 1590.7 701.97C1590.14 702.651 1589.86 703.558 1589.86 704.693C1589.86 706.268 1590.4 707.46 1591.5 708.268C1592.59 709.063 1593.99 709.46 1595.69 709.46Z" fill="white"/>
<path d="M1623.53 670.264V713.843H1617.54V670.264H1623.53Z" fill="white"/>
<path d="M1266.5 499.846C1264.55 499.846 1262.78 499.463 1261.21 498.697C1259.63 497.917 1258.38 496.789 1257.46 495.314C1256.55 493.839 1256.1 492.03 1256.1 489.888C1256.1 488.044 1256.43 486.526 1257.1 485.334C1257.77 484.142 1258.67 483.199 1259.81 482.504C1260.94 481.809 1262.21 481.284 1263.61 480.929C1265.01 480.575 1266.44 480.305 1267.9 480.121C1269.74 479.894 1271.24 479.709 1272.38 479.567C1273.53 479.411 1274.37 479.163 1274.89 478.823C1275.41 478.482 1275.67 477.929 1275.67 477.163V477.014C1275.67 475.156 1275.17 473.716 1274.19 472.694C1273.21 471.673 1271.76 471.162 1269.82 471.162C1267.8 471.162 1266.21 471.637 1265.05 472.588C1263.9 473.524 1263.11 474.567 1262.67 475.716L1257.04 474.354C1257.71 472.368 1258.68 470.765 1259.97 469.545C1261.26 468.311 1262.75 467.417 1264.43 466.864C1266.11 466.296 1267.88 466.013 1269.74 466.013C1270.97 466.013 1272.27 466.169 1273.65 466.481C1275.03 466.779 1276.33 467.332 1277.53 468.141C1278.75 468.949 1279.74 470.105 1280.52 471.609C1281.29 473.099 1281.68 475.035 1281.68 477.418V499.123H1275.83V494.654H1275.59C1275.2 495.477 1274.62 496.286 1273.85 497.08C1273.07 497.875 1272.08 498.534 1270.86 499.059C1269.65 499.584 1268.19 499.846 1266.5 499.846ZM1267.8 494.739C1269.45 494.739 1270.87 494.392 1272.04 493.697C1273.23 493.002 1274.13 492.094 1274.75 490.973C1275.37 489.838 1275.69 488.625 1275.69 487.334V483.121C1275.47 483.348 1275.06 483.561 1274.45 483.759C1273.85 483.944 1273.16 484.107 1272.38 484.249C1271.61 484.377 1270.85 484.497 1270.12 484.611C1269.39 484.71 1268.77 484.795 1268.28 484.866C1267.12 485.022 1266.05 485.284 1265.09 485.653C1264.15 486.022 1263.38 486.554 1262.81 487.249C1262.25 487.93 1261.97 488.838 1261.97 489.973C1261.97 491.548 1262.52 492.739 1263.61 493.548C1264.71 494.342 1266.1 494.739 1267.8 494.739Z" fill="white"/>
<path d="M1295.64 479.716V499.123H1289.65V466.438H1295.4V471.758H1295.78C1296.49 470.027 1297.6 468.637 1299.11 467.587C1300.63 466.538 1302.55 466.013 1304.86 466.013C1306.95 466.013 1308.79 466.481 1310.36 467.417C1311.94 468.339 1313.16 469.715 1314.03 471.545C1314.9 473.375 1315.33 475.638 1315.33 478.333V499.123H1309.34V479.099C1309.34 476.73 1308.76 474.879 1307.6 473.545C1306.44 472.198 1304.84 471.524 1302.81 471.524C1301.42 471.524 1300.19 471.843 1299.11 472.481C1298.04 473.12 1297.19 474.056 1296.56 475.29C1295.95 476.51 1295.64 477.986 1295.64 479.716Z" fill="white"/>
<path d="M1374.4 477.333C1374.4 481.986 1373.6 485.987 1372 489.335C1370.4 492.668 1368.2 495.236 1365.41 497.038C1362.63 498.825 1359.47 499.719 1355.93 499.719C1352.38 499.719 1349.21 498.825 1346.42 497.038C1343.64 495.236 1341.45 492.661 1339.85 489.313C1338.25 485.965 1337.45 481.972 1337.45 477.333C1337.45 472.68 1338.25 468.687 1339.85 465.353C1341.45 462.005 1343.64 459.437 1346.42 457.65C1349.21 455.848 1352.38 454.948 1355.93 454.948C1359.47 454.948 1362.63 455.848 1365.41 457.65C1368.2 459.437 1370.4 462.005 1372 465.353C1373.6 468.687 1374.4 472.68 1374.4 477.333ZM1368.27 477.333C1368.27 473.787 1367.73 470.8 1366.65 468.375C1365.58 465.935 1364.11 464.09 1362.24 462.842C1360.39 461.58 1358.28 460.948 1355.93 460.948C1353.57 460.948 1351.46 461.58 1349.61 462.842C1347.75 464.09 1346.28 465.935 1345.2 468.375C1344.13 470.8 1343.6 473.787 1343.6 477.333C1343.6 480.88 1344.13 483.873 1345.2 486.313C1346.28 488.739 1347.75 490.583 1349.61 491.845C1351.46 493.094 1353.57 493.718 1355.93 493.718C1358.28 493.718 1360.39 493.094 1362.24 491.845C1364.11 490.583 1365.58 488.739 1366.65 486.313C1367.73 483.873 1368.27 480.88 1368.27 477.333Z" fill="white"/>
<path d="M1381.64 499.123V466.438H1387.63V499.123H1381.64ZM1384.66 461.395C1383.62 461.395 1382.72 461.026 1381.98 460.289C1381.24 459.537 1380.88 458.643 1380.88 457.607C1380.88 456.558 1381.24 455.664 1381.98 454.926C1382.72 454.174 1383.62 453.798 1384.66 453.798C1385.7 453.798 1386.59 454.174 1387.32 454.926C1388.07 455.664 1388.45 456.558 1388.45 457.607C1388.45 458.643 1388.07 459.537 1387.32 460.289C1386.59 461.026 1385.7 461.395 1384.66 461.395Z" fill="white"/>
<path d="M1395.68 499.123V466.438H1401.47V471.63H1401.79C1402.35 469.871 1403.34 468.488 1404.75 467.481C1406.18 466.46 1407.8 465.949 1409.6 465.949C1409.98 465.949 1410.42 465.963 1410.92 465.991C1411.44 466.02 1411.85 466.055 1412.15 466.098V472.184C1411.91 472.113 1411.48 472.035 1410.86 471.95C1410.25 471.85 1409.64 471.801 1409.02 471.801C1407.61 471.801 1406.34 472.12 1405.24 472.758C1404.14 473.382 1403.27 474.255 1402.63 475.375C1401.99 476.482 1401.67 477.745 1401.67 479.163V499.123H1395.68Z" fill="white"/>
<path d="M1427.74 499.761C1425.26 499.761 1423.04 499.087 1421.09 497.74C1419.16 496.378 1417.64 494.442 1416.53 491.931C1415.43 489.405 1414.88 486.377 1414.88 482.844C1414.88 479.312 1415.44 476.29 1416.55 473.78C1417.67 471.269 1419.2 469.346 1421.15 468.013C1423.1 466.679 1425.31 466.013 1427.78 466.013C1429.69 466.013 1431.23 466.353 1432.39 467.034C1433.56 467.701 1434.47 468.481 1435.11 469.375C1435.77 470.268 1436.28 471.056 1436.64 471.737H1437V455.543H1442.98V499.123H1437.14V494.037H1436.64C1436.28 494.732 1435.75 495.527 1435.07 496.42C1434.41 497.314 1433.48 498.094 1432.31 498.761C1431.13 499.428 1429.61 499.761 1427.74 499.761ZM1429.06 494.335C1430.79 494.335 1432.24 493.853 1433.43 492.888C1434.63 491.909 1435.54 490.555 1436.16 488.824C1436.78 487.093 1437.1 485.079 1437.1 482.781C1437.1 480.511 1436.79 478.525 1436.18 476.822C1435.56 475.12 1434.66 473.794 1433.47 472.843C1432.28 471.893 1430.81 471.418 1429.06 471.418C1427.26 471.418 1425.76 471.914 1424.56 472.907C1423.36 473.9 1422.45 475.255 1421.83 476.971C1421.23 478.688 1420.93 480.624 1420.93 482.781C1420.93 484.965 1421.24 486.93 1421.85 488.675C1422.47 490.42 1423.38 491.803 1424.58 492.824C1425.79 493.832 1427.29 494.335 1429.06 494.335Z" fill="white"/>
<path d="M1457.52 479.716V499.123H1451.53V455.543H1457.44V471.758H1457.82C1458.54 469.999 1459.64 468.602 1461.13 467.566C1462.61 466.53 1464.54 466.013 1466.93 466.013C1469.04 466.013 1470.89 466.474 1472.46 467.396C1474.05 468.318 1475.28 469.694 1476.15 471.524C1477.03 473.34 1477.47 475.61 1477.47 478.333V499.123H1471.48V479.099C1471.48 476.702 1470.9 474.843 1469.74 473.524C1468.58 472.191 1466.96 471.524 1464.89 471.524C1463.48 471.524 1462.21 471.843 1461.09 472.481C1459.98 473.12 1459.1 474.056 1458.46 475.29C1457.83 476.51 1457.52 477.986 1457.52 479.716Z" fill="white"/>
<path d="M1498.72 499.783C1495.69 499.783 1493.08 499.095 1490.89 497.719C1488.71 496.328 1487.03 494.378 1485.84 491.867C1484.67 489.342 1484.08 486.384 1484.08 482.993C1484.08 479.645 1484.67 476.695 1485.84 474.141C1487.03 471.588 1488.69 469.595 1490.81 468.162C1492.95 466.729 1495.44 466.013 1498.3 466.013C1500.04 466.013 1501.72 466.318 1503.35 466.928C1504.98 467.538 1506.44 468.495 1507.73 469.8C1509.03 471.105 1510.05 472.801 1510.8 474.886C1511.55 476.957 1511.92 479.475 1511.92 482.44V484.696H1487.46V479.929H1506.05C1506.05 478.255 1505.73 476.773 1505.09 475.482C1504.45 474.177 1503.55 473.148 1502.39 472.396C1501.24 471.645 1499.89 471.269 1498.34 471.269C1496.66 471.269 1495.19 471.708 1493.93 472.588C1492.69 473.453 1491.73 474.588 1491.05 475.993C1490.38 477.383 1490.05 478.894 1490.05 480.525V484.249C1490.05 486.433 1490.41 488.292 1491.13 489.824C1491.86 491.356 1492.89 492.526 1494.19 493.335C1495.5 494.129 1497.03 494.527 1498.78 494.527C1499.92 494.527 1500.95 494.356 1501.89 494.016C1502.82 493.661 1503.63 493.136 1504.31 492.441C1504.99 491.746 1505.51 490.888 1505.87 489.867L1511.54 490.952C1511.08 492.725 1510.27 494.278 1509.1 495.612C1507.93 496.931 1506.47 497.96 1504.71 498.697C1502.96 499.421 1500.96 499.783 1498.72 499.783Z" fill="white"/>
<path d="M1518.56 499.123V466.438H1524.55V499.123H1518.56ZM1521.59 461.395C1520.55 461.395 1519.65 461.026 1518.9 460.289C1518.17 459.537 1517.8 458.643 1517.8 457.607C1517.8 456.558 1518.17 455.664 1518.9 454.926C1519.65 454.174 1520.55 453.798 1521.59 453.798C1522.63 453.798 1523.52 454.174 1524.25 454.926C1525 455.664 1525.37 456.558 1525.37 457.607C1525.37 458.643 1525 459.537 1524.25 460.289C1523.52 461.026 1522.63 461.395 1521.59 461.395Z" fill="white"/>
<path d="M1555.66 474.418L1550.23 475.439C1550.01 474.702 1549.65 473.999 1549.15 473.333C1548.67 472.666 1548.02 472.12 1547.19 471.694C1546.36 471.269 1545.33 471.056 1544.09 471.056C1542.39 471.056 1540.97 471.46 1539.84 472.269C1538.7 473.063 1538.14 474.092 1538.14 475.354C1538.14 476.446 1538.52 477.326 1539.28 477.993C1540.04 478.66 1541.27 479.206 1542.96 479.631L1547.85 480.823C1550.68 481.518 1552.79 482.589 1554.18 484.036C1555.57 485.483 1556.26 487.363 1556.26 489.675C1556.26 491.633 1555.73 493.378 1554.66 494.91C1553.61 496.428 1552.13 497.619 1550.23 498.485C1548.35 499.35 1546.17 499.783 1543.69 499.783C1540.24 499.783 1537.43 499.002 1535.25 497.442C1533.08 495.867 1531.74 493.633 1531.25 490.739L1537.04 489.803C1537.4 491.406 1538.14 492.619 1539.26 493.441C1540.38 494.25 1541.84 494.654 1543.65 494.654C1545.61 494.654 1547.18 494.222 1548.35 493.356C1549.53 492.477 1550.11 491.406 1550.11 490.143C1550.11 489.122 1549.75 488.264 1549.03 487.568C1548.33 486.873 1547.24 486.348 1545.77 485.994L1540.56 484.781C1537.69 484.086 1535.57 482.979 1534.19 481.461C1532.83 479.943 1532.15 478.021 1532.15 475.695C1532.15 473.765 1532.66 472.077 1533.67 470.63C1534.69 469.183 1536.09 468.055 1537.88 467.247C1539.67 466.424 1541.72 466.013 1544.03 466.013C1547.35 466.013 1549.97 466.779 1551.88 468.311C1553.79 469.829 1555.05 471.864 1555.66 474.418Z" fill="white"/>
<path d="M1575.81 499.783C1572.83 499.783 1570.27 499.066 1568.12 497.633C1565.98 496.186 1564.34 494.193 1563.19 491.654C1562.04 489.115 1561.47 486.207 1561.47 482.93C1561.47 479.61 1562.05 476.681 1563.23 474.141C1564.4 471.588 1566.06 469.595 1568.2 468.162C1570.33 466.729 1572.85 466.013 1575.75 466.013C1578.08 466.013 1580.17 466.474 1582 467.396C1583.83 468.304 1585.3 469.58 1586.42 471.226C1587.56 472.872 1588.23 474.794 1588.45 476.993H1582.62C1582.3 475.461 1581.56 474.141 1580.41 473.035C1579.28 471.928 1577.76 471.375 1575.85 471.375C1574.18 471.375 1572.72 471.843 1571.46 472.779C1570.22 473.701 1569.25 475.021 1568.56 476.737C1567.86 478.44 1567.51 480.454 1567.51 482.781C1567.51 485.164 1567.86 487.221 1568.54 488.952C1569.22 490.682 1570.18 492.023 1571.42 492.973C1572.68 493.924 1574.15 494.399 1575.85 494.399C1576.98 494.399 1578.01 494.179 1578.93 493.739C1579.87 493.285 1580.65 492.64 1581.27 491.803C1581.92 490.966 1582.36 489.959 1582.62 488.781H1588.45C1588.23 490.895 1587.58 492.782 1586.5 494.442C1585.42 496.101 1583.97 497.406 1582.16 498.357C1580.35 499.307 1578.24 499.783 1575.81 499.783Z" fill="white"/>
<path d="M1594.85 499.123V466.438H1600.84V499.123H1594.85ZM1597.87 461.395C1596.83 461.395 1595.94 461.026 1595.19 460.289C1594.46 459.537 1594.09 458.643 1594.09 457.607C1594.09 456.558 1594.46 455.664 1595.19 454.926C1595.94 454.174 1596.83 453.798 1597.87 453.798C1598.92 453.798 1599.8 454.174 1600.54 454.926C1601.29 455.664 1601.66 456.558 1601.66 457.607C1601.66 458.643 1601.29 459.537 1600.54 460.289C1599.8 461.026 1598.92 461.395 1597.87 461.395Z" fill="white"/>
<path d="M1608.89 499.123V466.438H1614.68V471.63H1615C1615.56 469.871 1616.55 468.488 1617.97 467.481C1619.4 466.46 1621.01 465.949 1622.81 465.949C1623.19 465.949 1623.63 465.963 1624.14 465.991C1624.66 466.02 1625.06 466.055 1625.36 466.098V472.184C1625.12 472.113 1624.69 472.035 1624.08 471.95C1623.46 471.85 1622.85 471.801 1622.23 471.801C1620.82 471.801 1619.56 472.12 1618.45 472.758C1617.35 473.382 1616.49 474.255 1615.84 475.375C1615.2 476.482 1614.88 477.745 1614.88 479.163V499.123H1608.89Z" fill="white"/>
<path d="M1646.72 466.438V471.545H1629.91V466.438H1646.72ZM1634.42 458.608H1640.41V489.526C1640.41 490.76 1640.58 491.689 1640.93 492.314C1641.28 492.924 1641.73 493.342 1642.27 493.569C1642.83 493.782 1643.44 493.888 1644.1 493.888C1644.58 493.888 1645 493.853 1645.36 493.782C1645.72 493.711 1646 493.654 1646.2 493.612L1647.28 498.868C1646.93 499.009 1646.44 499.151 1645.8 499.293C1645.16 499.449 1644.36 499.534 1643.39 499.549C1641.82 499.577 1640.35 499.279 1638.99 498.655C1637.63 498.031 1636.52 497.066 1635.68 495.761C1634.84 494.456 1634.42 492.817 1634.42 490.845V458.608Z" fill="white"/>
<path d="M1293.65 322.535C1293.65 327.188 1292.85 331.188 1291.25 334.536C1289.65 337.87 1287.45 340.438 1284.66 342.239C1281.88 344.027 1278.73 344.92 1275.19 344.92C1271.64 344.92 1268.46 344.027 1265.67 342.239C1262.9 340.438 1260.71 337.863 1259.1 334.515C1257.5 331.167 1256.7 327.174 1256.7 322.535C1256.7 317.882 1257.5 313.888 1259.1 310.555C1260.71 307.207 1262.9 304.639 1265.67 302.852C1268.46 301.05 1271.64 300.149 1275.19 300.149C1278.73 300.149 1281.88 301.05 1284.66 302.852C1287.45 304.639 1289.65 307.207 1291.25 310.555C1292.85 313.888 1293.65 317.882 1293.65 322.535ZM1287.53 322.535C1287.53 318.988 1286.98 316.002 1285.9 313.576C1284.83 311.136 1283.37 309.292 1281.5 308.044C1279.64 306.781 1277.54 306.15 1275.19 306.15C1272.82 306.15 1270.71 306.781 1268.86 308.044C1267 309.292 1265.53 311.136 1264.45 313.576C1263.38 316.002 1262.85 318.988 1262.85 322.535C1262.85 326.081 1263.38 329.074 1264.45 331.514C1265.53 333.94 1267 335.784 1268.86 337.047C1270.71 338.295 1272.82 338.92 1275.19 338.92C1277.54 338.92 1279.64 338.295 1281.5 337.047C1283.37 335.784 1284.83 333.94 1285.9 331.514C1286.98 329.074 1287.53 326.081 1287.53 322.535Z" fill="white"/>
<path d="M1306.88 300.745V344.325H1300.89V300.745H1306.88Z" fill="white"/>
<path d="M1320.92 300.745V344.325H1314.94V300.745H1320.92Z" fill="white"/>
<path d="M1352.03 319.619L1346.61 320.641C1346.38 319.903 1346.02 319.201 1345.52 318.534C1345.04 317.867 1344.39 317.321 1343.56 316.896C1342.73 316.47 1341.7 316.257 1340.46 316.257C1338.76 316.257 1337.35 316.662 1336.21 317.47C1335.08 318.265 1334.51 319.293 1334.51 320.556C1334.51 321.648 1334.89 322.528 1335.65 323.194C1336.41 323.861 1337.64 324.407 1339.34 324.833L1344.22 326.024C1347.05 326.72 1349.16 327.791 1350.55 329.238C1351.94 330.685 1352.63 332.564 1352.63 334.877C1352.63 336.834 1352.1 338.579 1351.03 340.111C1349.98 341.629 1348.5 342.821 1346.61 343.686C1344.72 344.551 1342.54 344.984 1340.06 344.984C1336.61 344.984 1333.8 344.204 1331.62 342.643C1329.45 341.069 1328.11 338.834 1327.62 335.941L1333.41 335.004C1333.77 336.607 1334.51 337.82 1335.63 338.643C1336.75 339.452 1338.21 339.856 1340.02 339.856C1341.98 339.856 1343.55 339.423 1344.72 338.558C1345.9 337.678 1346.49 336.607 1346.49 335.345C1346.49 334.323 1346.13 333.465 1345.4 332.77C1344.7 332.075 1343.61 331.55 1342.14 331.195L1336.93 329.982C1334.06 329.287 1331.94 328.181 1330.56 326.663C1329.2 325.145 1328.52 323.223 1328.52 320.896C1328.52 318.967 1329.03 317.279 1330.04 315.832C1331.06 314.385 1332.46 313.257 1334.25 312.448C1336.04 311.626 1338.09 311.214 1340.4 311.214C1343.72 311.214 1346.34 311.98 1348.25 313.512C1350.16 315.03 1351.42 317.066 1352.03 319.619Z" fill="white"/>
<path d="M1372.18 344.984C1369.2 344.984 1366.64 344.268 1364.49 342.835C1362.35 341.388 1360.71 339.395 1359.56 336.856C1358.41 334.316 1357.84 331.408 1357.84 328.131C1357.84 324.812 1358.42 321.882 1359.6 319.343C1360.77 316.789 1362.43 314.796 1364.57 313.363C1366.7 311.931 1369.22 311.214 1372.12 311.214C1374.45 311.214 1376.54 311.675 1378.37 312.597C1380.2 313.505 1381.67 314.782 1382.79 316.428C1383.93 318.073 1384.6 319.995 1384.82 322.194H1378.99C1378.67 320.662 1377.93 319.343 1376.78 318.236C1375.65 317.13 1374.13 316.577 1372.22 316.577C1370.55 316.577 1369.09 317.045 1367.83 317.981C1366.59 318.903 1365.62 320.222 1364.93 321.939C1364.23 323.641 1363.89 325.656 1363.89 327.982C1363.89 330.365 1364.23 332.422 1364.91 334.153C1365.59 335.884 1366.55 337.224 1367.79 338.175C1369.05 339.125 1370.52 339.601 1372.22 339.601C1373.35 339.601 1374.38 339.381 1375.3 338.941C1376.24 338.487 1377.02 337.841 1377.65 337.004C1378.29 336.168 1378.73 335.16 1378.99 333.983H1384.82C1384.6 336.097 1383.95 337.983 1382.87 339.643C1381.79 341.303 1380.34 342.608 1378.53 343.558C1376.72 344.509 1374.61 344.984 1372.18 344.984Z" fill="white"/>
<path d="M1404.18 344.984C1401.29 344.984 1398.78 344.282 1396.63 342.878C1394.48 341.473 1392.81 339.508 1391.62 336.983C1390.43 334.458 1389.84 331.507 1389.84 328.131C1389.84 324.741 1390.43 321.776 1391.62 319.236C1392.81 316.697 1394.48 314.725 1396.63 313.321C1398.78 311.916 1401.29 311.214 1404.18 311.214C1407.06 311.214 1409.58 311.916 1411.73 313.321C1413.88 314.725 1415.55 316.697 1416.74 319.236C1417.93 321.776 1418.52 324.741 1418.52 328.131C1418.52 331.507 1417.93 334.458 1416.74 336.983C1415.55 339.508 1413.88 341.473 1411.73 342.878C1409.58 344.282 1407.06 344.984 1404.18 344.984ZM1404.2 339.643C1406.07 339.643 1407.62 339.118 1408.85 338.068C1410.07 337.019 1410.98 335.621 1411.57 333.876C1412.17 332.132 1412.47 330.209 1412.47 328.11C1412.47 326.024 1412.17 324.109 1411.57 322.364C1410.98 320.605 1410.07 319.194 1408.85 318.13C1407.62 317.066 1406.07 316.534 1404.2 316.534C1402.32 316.534 1400.75 317.066 1399.51 318.13C1398.28 319.194 1397.37 320.605 1396.77 322.364C1396.18 324.109 1395.89 326.024 1395.89 328.11C1395.89 330.209 1396.18 332.132 1396.77 333.876C1397.37 335.621 1398.28 337.019 1399.51 338.068C1400.75 339.118 1402.32 339.643 1404.2 339.643Z" fill="white"/>
<path d="M1425.2 344.325V311.64H1431.19V344.325H1425.2ZM1428.23 306.597C1427.19 306.597 1426.29 306.228 1425.54 305.49C1424.81 304.738 1424.44 303.845 1424.44 302.809C1424.44 301.759 1424.81 300.865 1425.54 300.128C1426.29 299.376 1427.19 299 1428.23 299C1429.27 299 1430.16 299.376 1430.89 300.128C1431.64 300.865 1432.01 301.759 1432.01 302.809C1432.01 303.845 1431.64 304.738 1430.89 305.49C1430.16 306.228 1429.27 306.597 1428.23 306.597Z" fill="white"/>
<path d="M1445.24 300.745V344.325H1439.25V300.745H1445.24Z" fill="white"/>
<path d="M1256 384.304V378.643H1287.75V384.304H1274.95V422.223H1268.78V384.304H1256Z" fill="white"/>
<path d="M1303.08 422.883C1300.05 422.883 1297.44 422.195 1295.25 420.819C1293.07 419.428 1291.39 417.478 1290.2 414.967C1289.02 412.442 1288.44 409.484 1288.44 406.094C1288.44 402.746 1289.02 399.795 1290.2 397.241C1291.39 394.688 1293.04 392.695 1295.17 391.262C1297.3 389.829 1299.8 389.113 1302.66 389.113C1304.39 389.113 1306.08 389.418 1307.7 390.028C1309.33 390.638 1310.8 391.595 1312.09 392.9C1313.39 394.206 1314.41 395.901 1315.16 397.986C1315.9 400.057 1316.28 402.575 1316.28 405.54V407.796H1291.82V403.029H1310.41C1310.41 401.355 1310.09 399.873 1309.45 398.582C1308.81 397.277 1307.9 396.248 1306.74 395.497C1305.59 394.745 1304.25 394.369 1302.7 394.369C1301.01 394.369 1299.55 394.808 1298.29 395.688C1297.05 396.553 1296.09 397.688 1295.41 399.093C1294.74 400.483 1294.41 401.994 1294.41 403.625V407.349C1294.41 409.534 1294.77 411.392 1295.49 412.924C1296.22 414.456 1297.24 415.627 1298.55 416.435C1299.86 417.23 1301.39 417.627 1303.14 417.627C1304.27 417.627 1305.31 417.457 1306.24 417.116C1307.18 416.761 1307.99 416.237 1308.67 415.541C1309.35 414.846 1309.87 413.988 1310.23 412.967L1315.9 414.052C1315.44 415.825 1314.63 417.379 1313.45 418.712C1312.29 420.031 1310.83 421.06 1309.07 421.797C1307.32 422.521 1305.32 422.883 1303.08 422.883Z" fill="white"/>
<path d="M1322.92 422.223V389.538H1328.91V422.223H1322.92ZM1325.95 384.495C1324.9 384.495 1324.01 384.126 1323.26 383.389C1322.53 382.637 1322.16 381.743 1322.16 380.708C1322.16 379.658 1322.53 378.764 1323.26 378.026C1324.01 377.274 1324.9 376.899 1325.95 376.899C1326.99 376.899 1327.88 377.274 1328.61 378.026C1329.36 378.764 1329.73 379.658 1329.73 380.708C1329.73 381.743 1329.36 382.637 1328.61 383.389C1327.88 384.126 1326.99 384.495 1325.95 384.495Z" fill="white"/>
<path d="M1349.93 422.883C1346.95 422.883 1344.38 422.166 1342.23 420.734C1340.1 419.287 1338.46 417.293 1337.31 414.754C1336.16 412.215 1335.58 409.307 1335.58 406.03C1335.58 402.71 1336.17 399.781 1337.35 397.241C1338.52 394.688 1340.18 392.695 1342.31 391.262C1344.45 389.829 1346.97 389.113 1349.87 389.113C1352.2 389.113 1354.29 389.574 1356.11 390.496C1357.94 391.404 1359.42 392.681 1360.54 394.326C1361.68 395.972 1362.35 397.894 1362.56 400.093H1356.74C1356.41 398.561 1355.68 397.241 1354.53 396.135C1353.4 395.028 1351.88 394.475 1349.97 394.475C1348.3 394.475 1346.83 394.943 1345.58 395.88C1344.34 396.802 1343.37 398.121 1342.68 399.837C1341.98 401.54 1341.63 403.554 1341.63 405.881C1341.63 408.264 1341.97 410.321 1342.66 412.052C1343.34 413.782 1344.3 415.123 1345.54 416.073C1346.79 417.024 1348.27 417.499 1349.97 417.499C1351.1 417.499 1352.13 417.279 1353.05 416.839C1353.98 416.386 1354.77 415.74 1355.39 414.903C1356.03 414.066 1356.48 413.059 1356.74 411.881H1362.56C1362.35 413.995 1361.7 415.882 1360.62 417.542C1359.54 419.201 1358.09 420.507 1356.27 421.457C1354.47 422.407 1352.36 422.883 1349.93 422.883Z" fill="white"/>
<path d="M1374.96 402.817V422.223H1368.97V389.538H1374.72V394.858H1375.1C1375.8 393.127 1376.91 391.737 1378.42 390.687C1379.94 389.638 1381.86 389.113 1384.17 389.113C1386.27 389.113 1388.1 389.581 1389.68 390.517C1391.25 391.439 1392.48 392.815 1393.34 394.645C1394.21 396.475 1394.65 398.738 1394.65 401.433V422.223H1388.66V402.199C1388.66 399.83 1388.08 397.979 1386.91 396.646C1385.75 395.298 1384.16 394.624 1382.13 394.624C1380.74 394.624 1379.5 394.943 1378.42 395.582C1377.35 396.22 1376.51 397.156 1375.88 398.39C1375.26 399.61 1374.96 401.086 1374.96 402.817Z" fill="white"/>
<path d="M1415.94 422.883C1412.9 422.883 1410.29 422.195 1408.1 420.819C1405.93 419.428 1404.25 417.478 1403.06 414.967C1401.88 412.442 1401.29 409.484 1401.29 406.094C1401.29 402.746 1401.88 399.795 1403.06 397.241C1404.25 394.688 1405.9 392.695 1408.02 391.262C1410.16 389.829 1412.66 389.113 1415.52 389.113C1417.25 389.113 1418.93 389.418 1420.56 390.028C1422.19 390.638 1423.65 391.595 1424.95 392.9C1426.24 394.206 1427.27 395.901 1428.01 397.986C1428.76 400.057 1429.13 402.575 1429.13 405.54V407.796H1404.68V403.029H1423.27C1423.27 401.355 1422.95 399.873 1422.31 398.582C1421.66 397.277 1420.76 396.248 1419.6 395.497C1418.45 394.745 1417.1 394.369 1415.56 394.369C1413.87 394.369 1412.4 394.808 1411.15 395.688C1409.91 396.553 1408.95 397.688 1408.26 399.093C1407.6 400.483 1407.26 401.994 1407.26 403.625V407.349C1407.26 409.534 1407.62 411.392 1408.34 412.924C1409.08 414.456 1410.1 415.627 1411.41 416.435C1412.72 417.23 1414.25 417.627 1416 417.627C1417.13 417.627 1418.17 417.457 1419.1 417.116C1420.04 416.761 1420.84 416.237 1421.52 415.541C1422.2 414.846 1422.73 413.988 1423.09 412.967L1428.75 414.052C1428.3 415.825 1427.49 417.379 1426.31 418.712C1425.15 420.031 1423.69 421.06 1421.92 421.797C1420.18 422.521 1418.18 422.883 1415.94 422.883Z" fill="white"/>
<path d="M1448.74 422.883C1445.85 422.883 1443.34 422.181 1441.19 420.776C1439.04 419.372 1437.37 417.407 1436.18 414.882C1434.99 412.357 1434.4 409.406 1434.4 406.03C1434.4 402.639 1434.99 399.674 1436.18 397.135C1437.37 394.596 1439.04 392.624 1441.19 391.219C1443.34 389.815 1445.85 389.113 1448.74 389.113C1451.62 389.113 1454.14 389.815 1456.29 391.219C1458.44 392.624 1460.11 394.596 1461.3 397.135C1462.48 399.674 1463.08 402.639 1463.08 406.03C1463.08 409.406 1462.48 412.357 1461.3 414.882C1460.11 417.407 1458.44 419.372 1456.29 420.776C1454.14 422.181 1451.62 422.883 1448.74 422.883ZM1448.76 417.542C1450.63 417.542 1452.18 417.017 1453.41 415.967C1454.63 414.917 1455.54 413.52 1456.13 411.775C1456.73 410.03 1457.03 408.108 1457.03 406.008C1457.03 403.923 1456.73 402.008 1456.13 400.263C1455.54 398.504 1454.63 397.092 1453.41 396.028C1452.18 394.965 1450.63 394.433 1448.76 394.433C1446.88 394.433 1445.31 394.965 1444.07 396.028C1442.84 397.092 1441.93 398.504 1441.33 400.263C1440.74 402.008 1440.45 403.923 1440.45 406.008C1440.45 408.108 1440.74 410.03 1441.33 411.775C1441.93 413.52 1442.84 414.917 1444.07 415.967C1445.31 417.017 1446.88 417.542 1448.76 417.542Z" fill="white"/>
<path d="M1475.75 378.643V422.223H1469.76V378.643H1475.75Z" fill="white"/>
<path d="M1492.76 422.947C1490.81 422.947 1489.05 422.564 1487.47 421.797C1485.9 421.017 1484.65 419.889 1483.73 418.414C1482.82 416.939 1482.37 415.13 1482.37 412.988C1482.37 411.144 1482.7 409.626 1483.37 408.434C1484.04 407.243 1484.94 406.299 1486.07 405.604C1487.21 404.909 1488.48 404.384 1489.88 404.029C1491.28 403.675 1492.71 403.405 1494.16 403.221C1496.01 402.994 1497.5 402.809 1498.65 402.668C1499.8 402.512 1500.63 402.263 1501.15 401.923C1501.67 401.582 1501.94 401.029 1501.94 400.263V400.114C1501.94 398.256 1501.44 396.816 1500.45 395.794C1499.48 394.773 1498.02 394.262 1496.09 394.262C1494.07 394.262 1492.48 394.738 1491.32 395.688C1490.17 396.624 1489.38 397.667 1488.94 398.816L1483.31 397.454C1483.98 395.468 1484.95 393.865 1486.23 392.645C1487.53 391.411 1489.02 390.517 1490.7 389.964C1492.38 389.396 1494.15 389.113 1496.01 389.113C1497.23 389.113 1498.54 389.269 1499.91 389.581C1501.3 389.879 1502.6 390.432 1503.8 391.241C1505.01 392.049 1506.01 393.205 1506.78 394.709C1507.56 396.199 1507.94 398.135 1507.94 400.518V422.223H1502.1V417.754H1501.85C1501.47 418.577 1500.89 419.386 1500.11 420.18C1499.34 420.975 1498.34 421.634 1497.13 422.159C1495.91 422.684 1494.46 422.947 1492.76 422.947ZM1494.06 417.84C1495.72 417.84 1497.13 417.492 1498.31 416.797C1499.5 416.102 1500.4 415.194 1501.01 414.073C1501.64 412.938 1501.96 411.725 1501.96 410.434V406.221C1501.74 406.448 1501.33 406.661 1500.71 406.86C1500.11 407.044 1499.42 407.207 1498.65 407.349C1497.88 407.477 1497.12 407.597 1496.39 407.711C1495.65 407.81 1495.04 407.895 1494.54 407.966C1493.38 408.122 1492.32 408.385 1491.36 408.753C1490.41 409.122 1489.65 409.654 1489.08 410.349C1488.52 411.03 1488.24 411.938 1488.24 413.073C1488.24 414.648 1488.78 415.839 1489.88 416.648C1490.97 417.442 1492.37 417.84 1494.06 417.84Z" fill="white"/>
<path d="M1515.92 422.223V389.538H1521.91V422.223H1515.92ZM1516.48 385.176L1521.17 375.366H1527.48L1521.27 385.176H1516.48Z" fill="white"/>
<path d="M1542.92 422.883C1540.04 422.883 1537.52 422.181 1535.37 420.776C1533.22 419.372 1531.55 417.407 1530.37 414.882C1529.18 412.357 1528.58 409.406 1528.58 406.03C1528.58 402.639 1529.18 399.674 1530.37 397.135C1531.55 394.596 1533.22 392.624 1535.37 391.219C1537.52 389.815 1540.04 389.113 1542.92 389.113C1545.81 389.113 1548.33 389.815 1550.48 391.219C1552.62 392.624 1554.29 394.596 1555.48 397.135C1556.67 399.674 1557.26 402.639 1557.26 406.03C1557.26 409.406 1556.67 412.357 1555.48 414.882C1554.29 417.407 1552.62 419.372 1550.48 420.776C1548.33 422.181 1545.81 422.883 1542.92 422.883ZM1542.94 417.542C1544.81 417.542 1546.36 417.017 1547.59 415.967C1548.82 414.917 1549.73 413.52 1550.31 411.775C1550.92 410.03 1551.22 408.108 1551.22 406.008C1551.22 403.923 1550.92 402.008 1550.31 400.263C1549.73 398.504 1548.82 397.092 1547.59 396.028C1546.36 394.965 1544.81 394.433 1542.94 394.433C1541.06 394.433 1539.5 394.965 1538.26 396.028C1537.03 397.092 1536.11 398.504 1535.51 400.263C1534.93 402.008 1534.63 403.923 1534.63 406.008C1534.63 408.108 1534.93 410.03 1535.51 411.775C1536.11 413.52 1537.03 414.917 1538.26 415.967C1539.5 417.017 1541.06 417.542 1542.94 417.542Z" fill="white"/>
<path d="M1576.91 422.883C1573.93 422.883 1571.37 422.166 1569.22 420.734C1567.08 419.287 1565.44 417.293 1564.29 414.754C1563.14 412.215 1562.57 409.307 1562.57 406.03C1562.57 402.71 1563.16 399.781 1564.33 397.241C1565.51 394.688 1567.16 392.695 1569.3 391.262C1571.43 389.829 1573.95 389.113 1576.85 389.113C1579.18 389.113 1581.27 389.574 1583.1 390.496C1584.93 391.404 1586.4 392.681 1587.52 394.326C1588.66 395.972 1589.33 397.894 1589.55 400.093H1583.72C1583.4 398.561 1582.66 397.241 1581.51 396.135C1580.38 395.028 1578.86 394.475 1576.95 394.475C1575.28 394.475 1573.82 394.943 1572.56 395.88C1571.32 396.802 1570.35 398.121 1569.66 399.837C1568.96 401.54 1568.62 403.554 1568.62 405.881C1568.62 408.264 1568.96 410.321 1569.64 412.052C1570.32 413.782 1571.28 415.123 1572.52 416.073C1573.78 417.024 1575.25 417.499 1576.95 417.499C1578.08 417.499 1579.11 417.279 1580.03 416.839C1580.97 416.386 1581.75 415.74 1582.38 414.903C1583.02 414.066 1583.46 413.059 1583.72 411.881H1589.55C1589.33 413.995 1588.69 415.882 1587.6 417.542C1586.52 419.201 1585.07 420.507 1583.26 421.457C1581.45 422.407 1579.34 422.883 1576.91 422.883Z" fill="white"/>
<path d="M1601.94 402.817V422.223H1595.95V378.643H1601.86V394.858H1602.24C1602.96 393.099 1604.06 391.702 1605.54 390.666C1607.03 389.631 1608.96 389.113 1611.35 389.113C1613.46 389.113 1615.31 389.574 1616.88 390.496C1618.47 391.418 1619.7 392.794 1620.57 394.624C1621.45 396.44 1621.89 398.71 1621.89 401.433V422.223H1615.9V402.199C1615.9 399.802 1615.32 397.944 1614.16 396.624C1613 395.291 1611.38 394.624 1609.31 394.624C1607.89 394.624 1606.63 394.943 1605.5 395.582C1604.4 396.22 1603.52 397.156 1602.88 398.39C1602.25 399.61 1601.94 401.086 1601.94 402.817Z" fill="white"/>
<path d="M1644.24 389.538V394.645H1627.44V389.538H1644.24ZM1631.94 381.708H1637.93V412.626C1637.93 413.86 1638.11 414.79 1638.45 415.414C1638.8 416.024 1639.25 416.442 1639.79 416.669C1640.35 416.882 1640.96 416.988 1641.62 416.988C1642.1 416.988 1642.52 416.953 1642.88 416.882C1643.24 416.811 1643.52 416.754 1643.72 416.712L1644.8 421.968C1644.45 422.11 1643.96 422.251 1643.32 422.393C1642.68 422.549 1641.88 422.634 1640.92 422.649C1639.34 422.677 1637.87 422.379 1636.51 421.755C1635.15 421.131 1634.05 420.166 1633.2 418.861C1632.36 417.556 1631.94 415.917 1631.94 413.946V381.708Z" fill="white"/>
<path d="M1659.82 422.947C1657.87 422.947 1656.11 422.564 1654.53 421.797C1652.95 421.017 1651.71 419.889 1650.79 418.414C1649.88 416.939 1649.42 415.13 1649.42 412.988C1649.42 411.144 1649.76 409.626 1650.42 408.434C1651.09 407.243 1651.99 406.299 1653.13 405.604C1654.26 404.909 1655.53 404.384 1656.93 404.029C1658.34 403.675 1659.76 403.405 1661.22 403.221C1663.06 402.994 1664.56 402.809 1665.71 402.668C1666.85 402.512 1667.69 402.263 1668.21 401.923C1668.73 401.582 1668.99 401.029 1668.99 400.263V400.114C1668.99 398.256 1668.5 396.816 1667.51 395.794C1666.53 394.773 1665.08 394.262 1663.14 394.262C1661.13 394.262 1659.54 394.738 1658.38 395.688C1657.23 396.624 1656.43 397.667 1655.99 398.816L1650.36 397.454C1651.03 395.468 1652.01 393.865 1653.29 392.645C1654.58 391.411 1656.07 390.517 1657.76 389.964C1659.44 389.396 1661.21 389.113 1663.06 389.113C1664.29 389.113 1665.59 389.269 1666.97 389.581C1668.36 389.879 1669.65 390.432 1670.85 391.241C1672.07 392.049 1673.06 393.205 1673.84 394.709C1674.61 396.199 1675 398.135 1675 400.518V422.223H1669.15V417.754H1668.91C1668.52 418.577 1667.94 419.386 1667.17 420.18C1666.39 420.975 1665.4 421.634 1664.18 422.159C1662.97 422.684 1661.51 422.947 1659.82 422.947ZM1661.12 417.84C1662.78 417.84 1664.19 417.492 1665.37 416.797C1666.55 416.102 1667.46 415.194 1668.07 414.073C1668.7 412.938 1669.01 411.725 1669.01 410.434V406.221C1668.8 406.448 1668.38 406.661 1667.77 406.86C1667.17 407.044 1666.48 407.207 1665.71 407.349C1664.93 407.477 1664.18 407.597 1663.44 407.711C1662.71 407.81 1662.09 407.895 1661.6 407.966C1660.44 408.122 1659.38 408.385 1658.42 408.753C1657.47 409.122 1656.71 409.654 1656.13 410.349C1655.57 411.03 1655.29 411.938 1655.29 413.073C1655.29 414.648 1655.84 415.839 1656.93 416.648C1658.03 417.442 1659.42 417.84 1661.12 417.84Z" fill="white"/>
<path d="M1280.4 604.812C1280.18 602.798 1279.3 601.237 1277.75 600.131C1276.2 599.01 1274.25 598.45 1271.9 598.45C1270.22 598.45 1268.77 598.733 1267.54 599.301C1266.31 599.854 1265.35 600.62 1264.67 601.599C1264 602.564 1263.67 603.663 1263.67 604.897C1263.67 605.933 1263.9 606.826 1264.35 607.578C1264.82 608.33 1265.43 608.961 1266.17 609.472C1266.94 609.969 1267.75 610.387 1268.62 610.728C1269.49 611.054 1270.32 611.323 1271.12 611.536L1275.13 612.643C1276.44 612.983 1277.78 613.444 1279.15 614.026C1280.53 614.608 1281.8 615.374 1282.98 616.324C1284.15 617.275 1285.1 618.452 1285.82 619.856C1286.56 621.261 1286.92 622.942 1286.92 624.9C1286.92 627.368 1286.32 629.56 1285.12 631.475C1283.93 633.39 1282.2 634.901 1279.93 636.007C1277.68 637.114 1274.95 637.667 1271.74 637.667C1268.67 637.667 1266.01 637.149 1263.77 636.114C1261.53 635.078 1259.77 633.61 1258.5 631.709C1257.24 629.794 1256.53 627.524 1256.4 624.9H1262.61C1262.73 626.474 1263.21 627.786 1264.05 628.836C1264.91 629.872 1265.99 630.645 1267.32 631.156C1268.65 631.652 1270.11 631.9 1271.7 631.9C1273.45 631.9 1275.01 631.61 1276.37 631.028C1277.74 630.432 1278.83 629.609 1279.61 628.56C1280.4 627.496 1280.8 626.254 1280.8 624.836C1280.8 623.545 1280.45 622.488 1279.75 621.665C1279.07 620.842 1278.15 620.161 1276.97 619.622C1275.81 619.083 1274.49 618.608 1273.02 618.197L1268.18 616.792C1264.89 615.842 1262.29 614.444 1260.37 612.6C1258.46 610.756 1257.5 608.316 1257.5 605.28C1257.5 602.769 1258.14 600.577 1259.42 598.705C1260.71 596.832 1262.44 595.378 1264.63 594.343C1266.82 593.293 1269.29 592.768 1272.04 592.768C1274.82 592.768 1277.27 593.286 1279.39 594.321C1281.53 595.357 1283.21 596.783 1284.44 598.599C1285.67 600.4 1286.31 602.471 1286.36 604.812H1280.4Z" fill="white"/>
<path d="M1306.8 637.603C1303.91 637.603 1301.4 636.901 1299.25 635.497C1297.1 634.092 1295.43 632.127 1294.24 629.602C1293.05 627.077 1292.46 624.126 1292.46 620.75C1292.46 617.36 1293.05 614.395 1294.24 611.855C1295.43 609.316 1297.1 607.344 1299.25 605.94C1301.4 604.535 1303.91 603.833 1306.8 603.833C1309.68 603.833 1312.2 604.535 1314.35 605.94C1316.5 607.344 1318.17 609.316 1319.36 611.855C1320.54 614.395 1321.14 617.36 1321.14 620.75C1321.14 624.126 1320.54 627.077 1319.36 629.602C1318.17 632.127 1316.5 634.092 1314.35 635.497C1312.2 636.901 1309.68 637.603 1306.8 637.603ZM1306.82 632.262C1308.69 632.262 1310.24 631.737 1311.47 630.687C1312.69 629.638 1313.6 628.24 1314.19 626.495C1314.79 624.751 1315.09 622.828 1315.09 620.729C1315.09 618.643 1314.79 616.728 1314.19 614.983C1313.6 613.224 1312.69 611.813 1311.47 610.749C1310.24 609.685 1308.69 609.153 1306.82 609.153C1304.94 609.153 1303.37 609.685 1302.13 610.749C1300.9 611.813 1299.99 613.224 1299.39 614.983C1298.8 616.728 1298.51 618.643 1298.51 620.729C1298.51 622.828 1298.8 624.751 1299.39 626.495C1299.99 628.24 1300.9 629.638 1302.13 630.687C1303.37 631.737 1304.94 632.262 1306.82 632.262Z" fill="white"/>
<path d="M1347.31 623.389V604.259H1353.32V636.943H1347.43V631.283H1347.11C1346.4 633.028 1345.27 634.482 1343.71 635.645C1342.16 636.795 1340.23 637.369 1337.92 637.369C1335.94 637.369 1334.19 636.908 1332.67 635.986C1331.16 635.05 1329.97 633.667 1329.11 631.837C1328.25 630.007 1327.82 627.744 1327.82 625.048V604.259H1333.81V624.282C1333.81 626.51 1334.39 628.283 1335.55 629.602C1336.72 630.922 1338.23 631.581 1340.08 631.581C1341.2 631.581 1342.32 631.283 1343.43 630.687C1344.55 630.092 1345.48 629.191 1346.21 627.985C1346.96 626.779 1347.33 625.247 1347.31 623.389Z" fill="white"/>
<path d="M1375.73 604.259V609.366H1358.92V604.259H1375.73ZM1363.43 596.428H1369.42V627.347C1369.42 628.581 1369.59 629.51 1369.94 630.134C1370.29 630.744 1370.73 631.163 1371.28 631.39C1371.84 631.602 1372.45 631.709 1373.1 631.709C1373.58 631.709 1374.01 631.673 1374.37 631.602C1374.73 631.532 1375.01 631.475 1375.21 631.432L1376.29 636.688C1375.94 636.83 1375.45 636.972 1374.81 637.114C1374.17 637.27 1373.36 637.355 1372.4 637.369C1370.83 637.397 1369.36 637.1 1368 636.475C1366.63 635.851 1365.53 634.887 1364.69 633.581C1363.85 632.276 1363.43 630.638 1363.43 628.666V596.428Z" fill="white"/>
<path d="M1389 617.537V636.943H1383.01V593.364H1388.92V609.579H1389.3C1390.02 607.819 1391.13 606.422 1392.61 605.387C1394.09 604.351 1396.03 603.833 1398.42 603.833C1400.53 603.833 1402.37 604.294 1403.94 605.216C1405.53 606.138 1406.76 607.514 1407.63 609.344C1408.51 611.16 1408.95 613.43 1408.95 616.154V636.943H1402.96V616.92C1402.96 614.522 1402.38 612.664 1401.22 611.345C1400.06 610.011 1398.44 609.344 1396.37 609.344C1394.96 609.344 1393.69 609.664 1392.57 610.302C1391.46 610.94 1390.58 611.877 1389.94 613.111C1389.32 614.331 1389 615.806 1389 617.537Z" fill="white"/>
<path d="M1432.35 636.943V593.364H1458.07V599.024H1438.54V612.302H1456.72V617.941H1438.54V631.283H1458.31V636.943H1432.35Z" fill="white"/>
<path d="M1474.81 637.667C1472.86 637.667 1471.09 637.284 1469.52 636.518C1467.94 635.738 1466.69 634.61 1465.77 633.135C1464.86 631.659 1464.41 629.85 1464.41 627.708C1464.41 625.864 1464.74 624.346 1465.41 623.155C1466.08 621.963 1466.98 621.02 1468.12 620.324C1469.25 619.629 1470.52 619.104 1471.92 618.75C1473.32 618.395 1474.75 618.126 1476.21 617.941C1478.05 617.714 1479.55 617.53 1480.69 617.388C1481.84 617.232 1482.68 616.984 1483.2 616.643C1483.72 616.303 1483.98 615.75 1483.98 614.983V614.834C1483.98 612.976 1483.49 611.536 1482.5 610.515C1481.52 609.493 1480.07 608.983 1478.13 608.983C1476.11 608.983 1474.53 609.458 1473.36 610.408C1472.22 611.345 1471.42 612.387 1470.98 613.536L1465.35 612.175C1466.02 610.189 1466.99 608.586 1468.28 607.366C1469.57 606.131 1471.06 605.238 1472.74 604.684C1474.43 604.117 1476.19 603.833 1478.05 603.833C1479.28 603.833 1480.58 603.989 1481.96 604.301C1483.34 604.599 1484.64 605.152 1485.84 605.961C1487.06 606.77 1488.05 607.926 1488.83 609.43C1489.6 610.919 1489.99 612.856 1489.99 615.239V636.943H1484.14V632.475H1483.9C1483.51 633.298 1482.93 634.106 1482.16 634.901C1481.38 635.695 1480.39 636.355 1479.17 636.88C1477.96 637.405 1476.5 637.667 1474.81 637.667ZM1476.11 632.56C1477.76 632.56 1479.18 632.212 1480.35 631.517C1481.54 630.822 1482.44 629.914 1483.06 628.794C1483.69 627.659 1484 626.446 1484 625.155V620.942C1483.79 621.169 1483.37 621.381 1482.76 621.58C1482.16 621.764 1481.47 621.928 1480.69 622.069C1479.92 622.197 1479.17 622.318 1478.43 622.431C1477.7 622.53 1477.08 622.616 1476.59 622.686C1475.43 622.843 1474.37 623.105 1473.4 623.474C1472.46 623.843 1471.69 624.375 1471.12 625.07C1470.56 625.751 1470.28 626.659 1470.28 627.793C1470.28 629.368 1470.83 630.56 1471.92 631.368C1473.02 632.163 1474.41 632.56 1476.11 632.56Z" fill="white"/>
<path d="M1521.02 612.238L1515.59 613.26C1515.36 612.522 1515 611.82 1514.51 611.153C1514.03 610.486 1513.37 609.94 1512.55 609.515C1511.72 609.089 1510.68 608.876 1509.44 608.876C1507.75 608.876 1506.33 609.281 1505.19 610.089C1504.06 610.884 1503.49 611.912 1503.49 613.175C1503.49 614.267 1503.87 615.147 1504.63 615.813C1505.4 616.48 1506.62 617.026 1508.32 617.452L1513.21 618.643C1516.04 619.339 1518.15 620.41 1519.54 621.857C1520.92 623.304 1521.62 625.183 1521.62 627.496C1521.62 629.453 1521.08 631.198 1520.02 632.73C1518.96 634.248 1517.49 635.44 1515.59 636.305C1513.71 637.17 1511.52 637.603 1509.04 637.603C1505.6 637.603 1502.78 636.823 1500.61 635.262C1498.43 633.688 1497.1 631.453 1496.6 628.56L1502.39 627.623C1502.75 629.226 1503.49 630.439 1504.61 631.262C1505.74 632.071 1507.2 632.475 1509 632.475C1510.96 632.475 1512.53 632.042 1513.71 631.177C1514.88 630.297 1515.47 629.226 1515.47 627.964C1515.47 626.942 1515.11 626.084 1514.39 625.389C1513.68 624.694 1512.59 624.169 1511.12 623.814L1505.92 622.601C1503.05 621.906 1500.92 620.8 1499.55 619.282C1498.18 617.764 1497.5 615.842 1497.5 613.515C1497.5 611.586 1498.01 609.898 1499.03 608.451C1500.04 607.004 1501.44 605.876 1503.23 605.067C1505.02 604.245 1507.07 603.833 1509.38 603.833C1512.71 603.833 1515.32 604.599 1517.23 606.131C1519.14 607.649 1520.4 609.685 1521.02 612.238Z" fill="white"/>
<path d="M1542.56 604.259V609.366H1525.76V604.259H1542.56ZM1530.27 596.428H1536.25V627.347C1536.25 628.581 1536.43 629.51 1536.78 630.134C1537.12 630.744 1537.57 631.163 1538.12 631.39C1538.68 631.602 1539.29 631.709 1539.94 631.709C1540.42 631.709 1540.84 631.673 1541.2 631.602C1541.56 631.532 1541.84 631.475 1542.04 631.432L1543.12 636.688C1542.78 636.83 1542.28 636.972 1541.64 637.114C1541 637.27 1540.2 637.355 1539.24 637.369C1537.66 637.397 1536.19 637.1 1534.83 636.475C1533.47 635.851 1532.37 634.887 1531.53 633.581C1530.69 632.276 1530.27 630.638 1530.27 628.666V596.428Z" fill="white"/>
<path opacity="0.967" fill-rule="evenodd" clip-rule="evenodd" d="M848.089 244.722C877.828 242.338 904.914 249.446 929.343 266.046C947.27 284.261 955.395 306.264 953.719 332.05C934.082 332.05 914.447 332.05 894.81 332.05C895.976 313.713 887.851 301.865 870.434 296.51C847.679 290.959 832.783 299.083 825.744 320.88C827.002 330.188 831.741 336.959 839.964 341.189C863.82 346.77 887.52 352.863 911.061 359.467C943.437 376.48 956.64 403.221 950.672 439.687C942.074 478.055 918.037 499.379 878.559 503.66C845.907 508.61 816.116 501.841 789.18 483.351C772.048 464.813 763.922 442.811 764.804 417.347C784.441 417.347 804.076 417.347 823.713 417.347C822.76 434.785 830.209 446.631 846.058 452.888C857.07 454.592 867.903 453.916 878.559 450.857C897.496 436.55 897.496 422.333 878.559 408.209C861.21 403.115 843.606 399.053 825.744 396.023C775.101 380.41 757.158 346.9 771.913 295.494C787.683 264.091 813.075 247.165 848.089 244.722Z" fill="white"/>
<path opacity="0.982" fill-rule="evenodd" clip-rule="evenodd" d="M988.252 248.784C1054.61 248.784 1120.97 248.784 1187.32 248.784C1187.32 264.355 1187.32 279.923 1187.32 295.494C1139.25 295.494 1091.17 295.494 1043.1 295.494C1043.1 313.772 1043.1 332.05 1043.1 350.328C1083.05 350.328 1123 350.328 1162.95 350.328C1162.95 366.575 1162.95 382.822 1162.95 399.07C1123 399.07 1083.05 399.07 1043.1 399.07C1043.1 416.671 1043.1 434.271 1043.1 451.873C1091.17 451.873 1139.25 451.873 1187.32 451.873C1187.32 468.12 1187.32 484.367 1187.32 500.614C1120.97 500.614 1054.61 500.614 988.252 500.614C988.252 416.671 988.252 332.726 988.252 248.784Z" fill="white"/>
<path opacity="0.896" fill-rule="evenodd" clip-rule="evenodd" d="M263.06 254.876C268.228 254.072 272.63 255.427 276.264 258.938C290.325 321.104 303.868 383.385 316.891 445.78C317.567 382.822 318.246 319.865 318.922 256.907C324.187 253.898 328.927 254.576 333.142 258.938C333.818 340.174 334.497 421.409 335.173 502.645C344.229 566.193 380.454 602.073 443.85 610.282C505.449 602.52 541.674 567.995 552.528 506.707C554.455 423.45 555.808 340.184 556.59 256.907C560.653 254.2 564.716 254.2 568.778 256.907C569.455 320.541 570.133 384.177 570.81 447.811C584.629 383.438 599.188 319.465 614.484 255.892C622.004 253.063 626.067 255.433 626.672 263C612.95 322.462 600.423 382.034 589.092 441.718C618.886 380.791 648.678 319.865 678.471 258.938C681.179 256.231 683.889 256.231 686.597 258.938C688.155 267.253 687.478 275.376 684.565 283.309C649.693 354.39 614.823 425.471 579.951 496.552C580.29 497.228 580.627 497.907 580.966 498.583C614.484 461.012 648.001 423.44 681.518 385.869C683.446 384.616 685.138 384.953 686.597 386.884C688.449 394.91 687.094 402.357 682.534 409.224C643.938 451.873 605.343 494.521 566.747 537.17C564.655 541.41 562.963 545.811 561.669 550.371C562.38 552.923 563.735 553.602 565.731 552.402C604.725 525.265 643.999 498.524 683.55 472.181C684.74 472.606 685.756 473.284 686.597 474.212C689.404 483.831 686.357 490.939 677.456 495.537C638.184 521.938 598.909 548.34 559.637 574.741C554.874 578.243 553.858 581.965 556.59 585.911C598.46 572.296 640.103 558.08 681.518 543.263C689.307 548.791 689.307 554.546 681.518 560.525C638.86 574.741 596.202 588.958 553.543 603.174C550.835 604.528 548.804 606.559 547.449 609.266C591.462 609.943 635.474 610.621 679.487 611.297C684.364 615.71 684.364 620.448 679.487 625.513C634.125 626.529 588.759 626.868 543.386 626.529C543.523 630.39 542.844 634.112 541.355 637.699C542.178 639.618 543.533 640.973 545.418 641.761C582.734 650.242 619.975 659.041 657.142 668.162C667.173 671.229 667.849 675.967 659.174 682.378C657.481 682.718 655.787 683.055 654.095 683.394C615.166 674.425 576.231 665.624 537.292 656.992C536.049 665.014 534.018 672.799 531.198 680.347C557.943 697.443 585.029 714.028 612.452 730.104C615.012 733.867 615.012 737.59 612.452 741.274C607.713 742.629 602.972 742.629 598.233 741.274C574.944 727.799 551.922 713.922 529.167 699.641C525.165 709.539 522.797 719.694 522.057 730.104C533.502 743.581 545.69 756.443 558.622 768.691C559.977 770.722 559.977 772.753 558.622 774.784C554.065 778.403 548.987 779.418 543.386 777.83C535.669 768.08 527.205 758.941 517.995 750.413C513.43 763.713 509.367 777.251 505.806 791.031C502.181 792.534 498.457 793.888 494.634 795.093C493.958 792.386 493.279 789.676 492.603 786.969C496.592 768.736 499.639 750.458 501.744 732.135C492.735 721.593 483.256 711.438 473.305 701.672C466.195 715.888 459.085 730.104 451.976 744.32C459.244 759.534 467.032 774.426 475.336 789C476.691 791.707 476.691 794.416 475.336 797.124C471.144 799.339 466.742 799.678 462.132 798.139C455.782 787.812 449.688 777.32 443.85 766.66C438.012 777.32 431.918 787.812 425.568 798.139C421.505 799.494 417.443 799.494 413.38 798.139C411.314 796.009 410.975 793.639 412.364 791.031C420.15 775.46 427.939 759.891 435.725 744.32C428.615 730.104 421.505 715.888 414.396 701.672C404.133 712.935 394.316 724.444 384.941 736.197C388.876 754.17 392.939 772.111 397.129 790.015C396.9 792.615 395.545 794.307 393.066 795.093C388.575 793.827 384.512 791.797 380.878 789C377.807 776.039 374.421 763.177 370.722 750.413C360.865 758.573 352.064 767.712 344.314 777.83C333.753 780.883 329.353 777.16 331.11 766.66C343.363 755.088 354.875 742.903 365.643 730.104C365.487 719.519 363.116 709.365 358.534 699.641C335.778 713.922 312.757 727.799 289.468 741.274C282.002 743.908 276.585 741.877 273.217 735.181C273.743 732.62 275.098 730.59 277.279 729.089C304.223 713.648 330.631 697.401 356.502 680.347C354.605 673.26 352.574 666.152 350.408 659.023C349.053 658.347 347.7 657.669 346.345 656.992C307.354 667.419 268.079 675.882 228.527 682.378C219.851 675.967 220.528 671.229 230.558 668.162C267.799 659.362 305.042 650.56 342.283 641.761C344.347 640.707 345.699 639.013 346.345 636.683C345.236 633.363 344.558 629.979 344.314 626.529C299.618 626.868 254.929 626.529 210.245 625.513C203.562 621.232 202.884 616.494 208.214 611.297C252.241 610.958 296.254 609.943 340.251 608.251C339.053 605.613 337.021 603.921 334.157 603.174C291.499 588.958 248.841 574.741 206.182 560.525C198.153 554.581 198.153 548.825 206.182 543.263C248.761 557.903 291.42 572.119 334.157 585.911C334.375 581.031 332.343 577.308 328.063 574.741C287.761 548.165 247.813 521.087 208.214 493.506C199.841 487.228 198.487 480.12 204.151 472.181C243.776 498.419 283.049 525.159 321.969 552.402C323.966 553.602 325.321 552.923 326.032 550.371C324.825 544.704 322.455 539.627 318.922 535.139C282.358 494.521 245.794 453.903 209.229 413.286C202.02 405.879 199.311 397.077 201.104 386.884C203.507 384.384 205.875 384.384 208.214 386.884C241.353 425.095 274.87 463.006 308.765 500.614C309.105 499.938 309.442 499.259 309.781 498.583C272.991 424.346 236.766 349.879 201.104 275.185C199.749 269.769 199.749 264.355 201.104 258.938C203.812 256.231 206.521 256.231 209.229 258.938C239.699 321.219 270.17 383.499 300.64 445.78C288.602 384.421 275.398 323.155 261.029 261.985C261.329 259.434 262.008 257.064 263.06 254.876ZM360.565 626.529C366.023 626.196 371.441 626.535 376.816 627.544C377.744 628.385 378.422 629.401 378.847 630.591C375.28 633.972 370.878 636.003 365.643 636.683C361.832 634.411 360.14 631.025 360.565 626.529ZM510.885 626.529C516.302 626.529 521.718 626.529 527.136 626.529C528.131 631.501 526.439 634.886 522.057 636.683C518.379 635.51 514.653 634.494 510.885 633.637C509.522 631.635 509.522 629.265 510.885 626.529ZM411.349 640.745C414.8 640.42 418.186 640.757 421.505 641.761C416.927 644.557 412.527 647.603 408.302 650.9C406.36 648.708 404.668 646.34 403.223 643.791C406.388 643.365 409.096 642.35 411.349 640.745ZM468.226 640.745C473.957 640.824 479.375 642.177 484.477 644.807C483.626 647.187 482.273 649.218 480.415 650.9C475.31 648.406 471.247 645.02 468.226 640.745ZM500.728 646.838C507.196 648.708 513.627 650.739 520.026 652.93C520.751 660.142 519.396 666.911 515.963 673.239C510.422 668.381 504.328 664.32 497.681 661.054C497.407 656.135 498.423 651.397 500.728 646.838ZM376.816 648.869C385.402 647.421 390.82 650.806 393.066 659.023C386.131 664.013 379.022 668.753 371.737 673.239C368.29 666.227 367.274 659.119 368.69 651.915C371.855 651.489 374.563 650.473 376.816 648.869ZM429.631 654.961C431.132 654.695 432.487 655.034 433.694 655.977C429.371 662.333 424.292 668.087 418.458 673.239C416.464 670.682 415.787 667.975 416.427 665.116C421.152 661.935 425.552 658.552 429.631 654.961ZM454.007 656.992C454.129 655.889 454.805 655.213 456.038 654.961C462.132 658.684 468.226 662.409 474.321 666.131C472.876 668.68 471.184 671.048 469.242 673.239C465.179 666.81 460.101 661.395 454.007 656.992ZM441.819 671.208C449.772 675.764 456.544 681.856 462.132 689.486C457.068 700.975 450.974 711.806 443.85 721.981C437.358 711.704 431.94 700.874 427.599 689.486C431.544 682.827 436.286 676.735 441.819 671.208ZM397.129 675.27C403.739 677.652 406.108 682.391 404.239 689.486C396.114 697.61 387.988 705.734 379.863 713.857C377.813 705.707 376.458 697.584 375.8 689.486C383.216 684.951 390.326 680.213 397.129 675.27ZM486.509 675.27C495.682 678.674 504.145 683.414 511.901 689.486C511.882 697.72 510.527 705.843 507.838 713.857C498.965 705.667 490.839 696.867 483.462 687.456C483.766 683.382 484.782 679.32 486.509 675.27Z" fill="white"/>
<path opacity="0.968" fill-rule="evenodd" clip-rule="evenodd" d="M768.866 537.17C829.807 537.17 890.748 537.17 951.688 537.17C951.688 554.093 951.688 571.019 951.688 587.942C930.698 587.942 909.706 587.942 888.716 587.942C888.716 655.638 888.716 723.335 888.716 791.031C869.758 791.031 850.797 791.031 831.838 791.031C831.838 723.335 831.838 655.638 831.838 587.942C810.848 587.942 789.856 587.942 768.866 587.942C768.866 571.019 768.866 554.093 768.866 537.17Z" fill="white"/>
<path opacity="0.97" fill-rule="evenodd" clip-rule="evenodd" d="M988.252 537.17C1006.53 537.17 1024.82 537.17 1043.1 537.17C1042.76 593.363 1043.1 649.549 1044.11 705.734C1051.39 736.311 1070.69 748.159 1102.01 741.274C1116.08 736.006 1125.22 726.191 1129.43 711.826C1132.39 653.694 1133.41 595.475 1132.48 537.17C1150.76 537.17 1169.04 537.17 1187.32 537.17C1187.66 594.039 1187.32 650.904 1186.31 707.765C1177.63 764.166 1144.79 792.599 1087.79 793.062C1033.37 793.127 1000.53 766.725 989.268 713.857C988.252 654.965 987.913 596.07 988.252 537.17Z" fill="white"/>
</svg>
